digraph "C:/Users/emanu/Music/Engenharia de Software/Sprint 2 - Classes Concretas na FORMA CANÔNICA + TESTES FUNCIONAISTarefa/system.hpp"
{
 // LATEX_PDF_SIZE
  edge [fontname="Helvetica",fontsize="10",labelfontname="Helvetica",labelfontsize="10"];
  node [fontname="Helvetica",fontsize="10",shape=record];
  Node1 [label="C:/Users/emanu/Music\l/Engenharia de Software\l/Sprint 2 - Classes Concretas\l na FORMA CANÔNICA + TESTES\l FUNCIONAISTarefa/system.hpp",height=0.2,width=0.4,color="black", fillcolor="grey75", style="filled", fontcolor="black",tooltip=" "];
  Node1 -> Node2 [color="midnightblue",fontsize="10",style="solid",fontname="Helvetica"];
  Node2 [label="iostream",height=0.2,width=0.4,color="grey75", fillcolor="white", style="filled",tooltip=" "];
  Node1 -> Node3 [color="midnightblue",fontsize="10",style="solid",fontname="Helvetica"];
  Node3 [label="string",height=0.2,width=0.4,color="grey75", fillcolor="white", style="filled",tooltip=" "];
}
