digraph "C:/Users/emanu/Music/Engenharia de Software/Sprint 2 - Classes Concretas na FORMA CANÔNICA + TESTES FUNCIONAISTarefa/flow.hpp"
{
 // LATEX_PDF_SIZE
  edge [fontname="Helvetica",fontsize="10",labelfontname="Helvetica",labelfontsize="10"];
  node [fontname="Helvetica",fontsize="10",shape=record];
  Node1 [label="C:/Users/emanu/Music\l/Engenharia de Software\l/Sprint 2 - Classes Concretas\l na FORMA CANÔNICA + TESTES\l FUNCIONAISTarefa/flow.hpp",height=0.2,width=0.4,color="black", fillcolor="grey75", style="filled", fontcolor="black",tooltip=" "];
  Node1 -> Node2 [dir="back",color="midnightblue",fontsize="10",style="solid",fontname="Helvetica"];
  Node2 [label="C:/Users/emanu/Music\l/Engenharia de Software\l/Sprint 2 - Classes Concretas\l na FORMA CANÔNICA + TESTES\l FUNCIONAISTarefa/flow.cpp",height=0.2,width=0.4,color="black", fillcolor="white", style="filled",URL="$flow_8cpp.html",tooltip=" "];
  Node1 -> Node3 [dir="back",color="midnightblue",fontsize="10",style="solid",fontname="Helvetica"];
  Node3 [label="C:/Users/emanu/Music\l/Engenharia de Software\l/Sprint 2 - Classes Concretas\l na FORMA CANÔNICA + TESTES\l FUNCIONAISTarefa/model.hpp",height=0.2,width=0.4,color="black", fillcolor="white", style="filled",URL="$model_8hpp.html",tooltip=" "];
  Node3 -> Node4 [dir="back",color="midnightblue",fontsize="10",style="solid",fontname="Helvetica"];
  Node4 [label="C:/Users/emanu/Music\l/Engenharia de Software\l/Sprint 2 - Classes Concretas\l na FORMA CANÔNICA + TESTES\l FUNCIONAISTarefa/main.cpp",height=0.2,width=0.4,color="black", fillcolor="white", style="filled",URL="$main_8cpp.html",tooltip=" "];
  Node3 -> Node5 [dir="back",color="midnightblue",fontsize="10",style="solid",fontname="Helvetica"];
  Node5 [label="C:/Users/emanu/Music\l/Engenharia de Software\l/Sprint 2 - Classes Concretas\l na FORMA CANÔNICA + TESTES\l FUNCIONAISTarefa/model.cpp",height=0.2,width=0.4,color="black", fillcolor="white", style="filled",URL="$model_8cpp.html",tooltip=" "];
}
