digraph "Gráfico de Hierarquia de Classes"
{
 // LATEX_PDF_SIZE
  edge [fontname="Helvetica",fontsize="10",labelfontname="Helvetica",labelfontsize="10"];
  node [fontname="Helvetica",fontsize="10",shape=record];
  rankdir="LR";
  Node0 [label="System",height=0.2,width=0.4,color="black", fillcolor="white", style="filled",URL="$class_system.html",tooltip=" "];
}
